^D:\12_RMV\03_RADIO_SONDE\SAMPLE\SRC\A429_SAMPLE.C
/c /I..\INCLUDE /I\INCLUDE /I\INCLUDE /I\INCLUDE /ZI /JMC /nologo /W3 /WX- /diagnostics:column /Od /D _CRT_SECURE_NO_WARNINGS /D _AIM_WINDOWS /D WIN32 /D _DEBUG /D _CONSOLE /D _LIB /D _MBCS /Gm- /EHsc /RTC1 /MDd /GS /fp:precise /Zc:wchar_t /Zc:forScope /Zc:inline /Fo"X64\DEBUG\\" /Fd"X64\DEBUG\VC143.PDB" /external:W3 /Gd /TC /FC D:\12_RMV\03_RADIO_SONDE\SAMPLE\SRC\A429_SAMPLE.C
^D:\12_RMV\03_RADIO_SONDE\SAMPLE\SRC\PRINT_VERSIONS.C
/c /I..\INCLUDE /I\INCLUDE /I\INCLUDE /I\INCLUDE /ZI /JMC /nologo /W3 /WX- /diagnostics:column /Od /D _CRT_SECURE_NO_WARNINGS /D _AIM_WINDOWS /D WIN32 /D _DEBUG /D _CONSOLE /D _LIB /D _MBCS /Gm- /EHsc /RTC1 /MDd /GS /fp:precise /Zc:wchar_t /Zc:forScope /Zc:inline /Fo"X64\DEBUG\\" /Fd"X64\DEBUG\VC143.PDB" /external:W3 /Gd /TC /FC D:\12_RMV\03_RADIO_SONDE\SAMPLE\SRC\PRINT_VERSIONS.C
^D:\12_RMV\03_RADIO_SONDE\SAMPLE\SRC\RXINTERRUPTSAMPLE.C
/c /I..\INCLUDE /I\INCLUDE /I\INCLUDE /I\INCLUDE /ZI /JMC /nologo /W3 /WX- /diagnostics:column /Od /D _CRT_SECURE_NO_WARNINGS /D _AIM_WINDOWS /D WIN32 /D _DEBUG /D _CONSOLE /D _LIB /D _MBCS /Gm- /EHsc /RTC1 /MDd /GS /fp:precise /Zc:wchar_t /Zc:forScope /Zc:inline /Fo"X64\DEBUG\\" /Fd"X64\DEBUG\VC143.PDB" /external:W3 /Gd /TC /FC D:\12_RMV\03_RADIO_SONDE\SAMPLE\SRC\RXINTERRUPTSAMPLE.C
^D:\12_RMV\03_RADIO_SONDE\SAMPLE\SRC\RXMONITORSAMPLE.C
/c /I..\INCLUDE /I\INCLUDE /I\INCLUDE /I\INCLUDE /ZI /JMC /nologo /W3 /WX- /diagnostics:column /Od /D _CRT_SECURE_NO_WARNINGS /D _AIM_WINDOWS /D WIN32 /D _DEBUG /D _CONSOLE /D _LIB /D _MBCS /Gm- /EHsc /RTC1 /MDd /GS /fp:precise /Zc:wchar_t /Zc:forScope /Zc:inline /Fo"X64\DEBUG\\" /Fd"X64\DEBUG\VC143.PDB" /external:W3 /Gd /TC /FC D:\12_RMV\03_RADIO_SONDE\SAMPLE\SRC\RXMONITORSAMPLE.C
^D:\12_RMV\03_RADIO_SONDE\SAMPLE\SRC\RXSAMPLE.C
/c /I..\INCLUDE /I\INCLUDE /I\INCLUDE /I\INCLUDE /ZI /JMC /nologo /W3 /WX- /diagnostics:column /Od /D _CRT_SECURE_NO_WARNINGS /D _AIM_WINDOWS /D WIN32 /D _DEBUG /D _CONSOLE /D _LIB /D _MBCS /Gm- /EHsc /RTC1 /MDd /GS /fp:precise /Zc:wchar_t /Zc:forScope /Zc:inline /Fo"X64\DEBUG\\" /Fd"X64\DEBUG\VC143.PDB" /external:W3 /Gd /TC /FC D:\12_RMV\03_RADIO_SONDE\SAMPLE\SRC\RXSAMPLE.C
^D:\12_RMV\03_RADIO_SONDE\SAMPLE\SRC\RXTXLOOPSAMPLE.C
/c /I..\INCLUDE /I\INCLUDE /I\INCLUDE /I\INCLUDE /ZI /JMC /nologo /W3 /WX- /diagnostics:column /Od /D _CRT_SECURE_NO_WARNINGS /D _AIM_WINDOWS /D WIN32 /D _DEBUG /D _CONSOLE /D _LIB /D _MBCS /Gm- /EHsc /RTC1 /MDd /GS /fp:precise /Zc:wchar_t /Zc:forScope /Zc:inline /Fo"X64\DEBUG\\" /Fd"X64\DEBUG\VC143.PDB" /external:W3 /Gd /TC /FC D:\12_RMV\03_RADIO_SONDE\SAMPLE\SRC\RXTXLOOPSAMPLE.C
^D:\12_RMV\03_RADIO_SONDE\SAMPLE\SRC\TEMPLATE_SAMPLE.C
/c /I..\INCLUDE /I\INCLUDE /I\INCLUDE /I\INCLUDE /ZI /JMC /nologo /W3 /WX- /diagnostics:column /Od /D _CRT_SECURE_NO_WARNINGS /D _AIM_WINDOWS /D WIN32 /D _DEBUG /D _CONSOLE /D _LIB /D _MBCS /Gm- /EHsc /RTC1 /MDd /GS /fp:precise /Zc:wchar_t /Zc:forScope /Zc:inline /Fo"X64\DEBUG\\" /Fd"X64\DEBUG\VC143.PDB" /external:W3 /Gd /TC /FC D:\12_RMV\03_RADIO_SONDE\SAMPLE\SRC\TEMPLATE_SAMPLE.C
^D:\12_RMV\03_RADIO_SONDE\SAMPLE\SRC\TXACYCLICSAMPLE.C
/c /I..\INCLUDE /I\INCLUDE /I\INCLUDE /I\INCLUDE /ZI /JMC /nologo /W3 /WX- /diagnostics:column /Od /D _CRT_SECURE_NO_WARNINGS /D _AIM_WINDOWS /D WIN32 /D _DEBUG /D _CONSOLE /D _LIB /D _MBCS /Gm- /EHsc /RTC1 /MDd /GS /fp:precise /Zc:wchar_t /Zc:forScope /Zc:inline /Fo"X64\DEBUG\\" /Fd"X64\DEBUG\VC143.PDB" /external:W3 /Gd /TC /FC D:\12_RMV\03_RADIO_SONDE\SAMPLE\SRC\TXACYCLICSAMPLE.C
^D:\12_RMV\03_RADIO_SONDE\SAMPLE\SRC\TXDYNTAGSAMPLE.C
/c /I..\INCLUDE /I\INCLUDE /I\INCLUDE /I\INCLUDE /ZI /JMC /nologo /W3 /WX- /diagnostics:column /Od /D _CRT_SECURE_NO_WARNINGS /D _AIM_WINDOWS /D WIN32 /D _DEBUG /D _CONSOLE /D _LIB /D _MBCS /Gm- /EHsc /RTC1 /MDd /GS /fp:precise /Zc:wchar_t /Zc:forScope /Zc:inline /Fo"X64\DEBUG\\" /Fd"X64\DEBUG\VC143.PDB" /external:W3 /Gd /TC /FC D:\12_RMV\03_RADIO_SONDE\SAMPLE\SRC\TXDYNTAGSAMPLE.C
^D:\12_RMV\03_RADIO_SONDE\SAMPLE\SRC\TXFIFOBASICSAMPLE.C
/c /I..\INCLUDE /I\INCLUDE /I\INCLUDE /I\INCLUDE /ZI /JMC /nologo /W3 /WX- /diagnostics:column /Od /D _CRT_SECURE_NO_WARNINGS /D _AIM_WINDOWS /D WIN32 /D _DEBUG /D _CONSOLE /D _LIB /D _MBCS /Gm- /EHsc /RTC1 /MDd /GS /fp:precise /Zc:wchar_t /Zc:forScope /Zc:inline /Fo"X64\DEBUG\\" /Fd"X64\DEBUG\VC143.PDB" /external:W3 /Gd /TC /FC D:\12_RMV\03_RADIO_SONDE\SAMPLE\SRC\TXFIFOBASICSAMPLE.C
^D:\12_RMV\03_RADIO_SONDE\SAMPLE\SRC\TXFIFOINTERRUPTSAMPLE.C
/c /I..\INCLUDE /I\INCLUDE /I\INCLUDE /I\INCLUDE /ZI /JMC /nologo /W3 /WX- /diagnostics:column /Od /D _CRT_SECURE_NO_WARNINGS /D _AIM_WINDOWS /D WIN32 /D _DEBUG /D _CONSOLE /D _LIB /D _MBCS /Gm- /EHsc /RTC1 /MDd /GS /fp:precise /Zc:wchar_t /Zc:forScope /Zc:inline /Fo"X64\DEBUG\\" /Fd"X64\DEBUG\VC143.PDB" /external:W3 /Gd /TC /FC D:\12_RMV\03_RADIO_SONDE\SAMPLE\SRC\TXFIFOINTERRUPTSAMPLE.C
^D:\12_RMV\03_RADIO_SONDE\SAMPLE\SRC\TXINTERRUPTSAMPLE.C
/c /I..\INCLUDE /I\INCLUDE /I\INCLUDE /I\INCLUDE /ZI /JMC /nologo /W3 /WX- /diagnostics:column /Od /D _CRT_SECURE_NO_WARNINGS /D _AIM_WINDOWS /D WIN32 /D _DEBUG /D _CONSOLE /D _LIB /D _MBCS /Gm- /EHsc /RTC1 /MDd /GS /fp:precise /Zc:wchar_t /Zc:forScope /Zc:inline /Fo"X64\DEBUG\\" /Fd"X64\DEBUG\VC143.PDB" /external:W3 /Gd /TC /FC D:\12_RMV\03_RADIO_SONDE\SAMPLE\SRC\TXINTERRUPTSAMPLE.C
^D:\12_RMV\03_RADIO_SONDE\SAMPLE\SRC\TXPHYSREPLAY.C
/c /I..\INCLUDE /I\INCLUDE /I\INCLUDE /I\INCLUDE /ZI /JMC /nologo /W3 /WX- /diagnostics:column /Od /D _CRT_SECURE_NO_WARNINGS /D _AIM_WINDOWS /D WIN32 /D _DEBUG /D _CONSOLE /D _LIB /D _MBCS /Gm- /EHsc /RTC1 /MDd /GS /fp:precise /Zc:wchar_t /Zc:forScope /Zc:inline /Fo"X64\DEBUG\\" /Fd"X64\DEBUG\VC143.PDB" /external:W3 /Gd /TC /FC D:\12_RMV\03_RADIO_SONDE\SAMPLE\SRC\TXPHYSREPLAY.C
^D:\12_RMV\03_RADIO_SONDE\SAMPLE\SRC\TXRATEORIENTEDSAMPLE.C
/c /I..\INCLUDE /I\INCLUDE /I\INCLUDE /I\INCLUDE /ZI /JMC /nologo /W3 /WX- /diagnostics:column /Od /D _CRT_SECURE_NO_WARNINGS /D _AIM_WINDOWS /D WIN32 /D _DEBUG /D _CONSOLE /D _LIB /D _MBCS /Gm- /EHsc /RTC1 /MDd /GS /fp:precise /Zc:wchar_t /Zc:forScope /Zc:inline /Fo"X64\DEBUG\\" /Fd"X64\DEBUG\VC143.PDB" /external:W3 /Gd /TC /FC D:\12_RMV\03_RADIO_SONDE\SAMPLE\SRC\TXRATEORIENTEDSAMPLE.C
^D:\12_RMV\03_RADIO_SONDE\SAMPLE\SRC\TXFRAMINGSAMPLE.C
/c /I..\INCLUDE /I\INCLUDE /I\INCLUDE /I\INCLUDE /ZI /JMC /nologo /W3 /WX- /diagnostics:column /Od /D _CRT_SECURE_NO_WARNINGS /D _AIM_WINDOWS /D WIN32 /D _DEBUG /D _CONSOLE /D _LIB /D _MBCS /Gm- /EHsc /RTC1 /MDd /GS /fp:precise /Zc:wchar_t /Zc:forScope /Zc:inline /Fo"X64\DEBUG\\" /Fd"X64\DEBUG\VC143.PDB" /external:W3 /Gd /TC /FC D:\12_RMV\03_RADIO_SONDE\SAMPLE\SRC\TXFRAMINGSAMPLE.C
