^D:\12_RMV\03_RADIO_SONDE\SAMPLE\SRC\A429_SAMPLE.C|D:\12_RMV\03_RADIO_SONDE\SAMPLE\SRC\PRINT_VERSIONS.C|D:\12_RMV\03_RADIO_SONDE\SAMPLE\SRC\RXINTERRUPTSAMPLE.C|D:\12_RMV\03_RADIO_SONDE\SAMPLE\SRC\RXMONITORSAMPLE.C|D:\12_RMV\03_RADIO_SONDE\SAMPLE\SRC\RXSAMPLE.C|D:\12_RMV\03_RADIO_SONDE\SAMPLE\SRC\RXTXLOOPSAMPLE.C|D:\12_RMV\03_RADIO_SONDE\SAMPLE\SRC\TEMPLATE_SAMPLE.C|D:\12_RMV\03_RADIO_SONDE\SAMPLE\SRC\TXACYCLICSAMPLE.C|D:\12_RMV\03_RADIO_SONDE\SAMPLE\SRC\TXDYNTAGSAMPLE.C|D:\12_RMV\03_RADIO_SONDE\SAMPLE\SRC\TXFIFOBASICSAMPLE.C|D:\12_RMV\03_RADIO_SONDE\SAMPLE\SRC\TXFIFOINTERRUPTSAMPLE.C|D:\12_RMV\03_RADIO_SONDE\SAMPLE\SRC\TXFRAMINGSAMPLE.C|D:\12_RMV\03_RADIO_SONDE\SAMPLE\SRC\TXINTERRUPTSAMPLE.C|D:\12_RMV\03_RADIO_SONDE\SAMPLE\SRC\TXPHYSREPLAY.C|D:\12_RMV\03_RADIO_SONDE\SAMPLE\SRC\TXRATEORIENTEDSAMPLE.C
D:\12_RMV\03_RADIO_SONDE\SAMPLE\X64\DEBUG\VC143.PDB
D:\12_RMV\03_RADIO_SONDE\SAMPLE\X64\DEBUG\VC143.IDB
D:\12_RMV\03_RADIO_SONDE\SAMPLE\X64\DEBUG\TXFRAMINGSAMPLE.OBJ
D:\12_RMV\03_RADIO_SONDE\SAMPLE\X64\DEBUG\TXRATEORIENTEDSAMPLE.OBJ
D:\12_RMV\03_RADIO_SONDE\SAMPLE\X64\DEBUG\TXPHYSREPLAY.OBJ
D:\12_RMV\03_RADIO_SONDE\SAMPLE\X64\DEBUG\TXINTERRUPTSAMPLE.OBJ
D:\12_RMV\03_RADIO_SONDE\SAMPLE\X64\DEBUG\TXFIFOINTERRUPTSAMPLE.OBJ
D:\12_RMV\03_RADIO_SONDE\SAMPLE\X64\DEBUG\TXFIFOBASICSAMPLE.OBJ
D:\12_RMV\03_RADIO_SONDE\SAMPLE\X64\DEBUG\TXDYNTAGSAMPLE.OBJ
D:\12_RMV\03_RADIO_SONDE\SAMPLE\X64\DEBUG\TXACYCLICSAMPLE.OBJ
D:\12_RMV\03_RADIO_SONDE\SAMPLE\X64\DEBUG\TEMPLATE_SAMPLE.OBJ
D:\12_RMV\03_RADIO_SONDE\SAMPLE\X64\DEBUG\RXTXLOOPSAMPLE.OBJ
D:\12_RMV\03_RADIO_SONDE\SAMPLE\X64\DEBUG\RXSAMPLE.OBJ
D:\12_RMV\03_RADIO_SONDE\SAMPLE\X64\DEBUG\RXMONITORSAMPLE.OBJ
D:\12_RMV\03_RADIO_SONDE\SAMPLE\X64\DEBUG\RXINTERRUPTSAMPLE.OBJ
D:\12_RMV\03_RADIO_SONDE\SAMPLE\X64\DEBUG\PRINT_VERSIONS.OBJ
D:\12_RMV\03_RADIO_SONDE\SAMPLE\X64\DEBUG\A429_SAMPLE.OBJ
^D:\12_RMV\03_RADIO_SONDE\SAMPLE\SRC\A429_SAMPLE.C
D:\12_RMV\03_RADIO_SONDE\SAMPLE\X64\DEBUG\VC143.PDB
^D:\12_RMV\03_RADIO_SONDE\SAMPLE\SRC\PRINT_VERSIONS.C
D:\12_RMV\03_RADIO_SONDE\SAMPLE\X64\DEBUG\VC143.PDB
^D:\12_RMV\03_RADIO_SONDE\SAMPLE\SRC\RXINTERRUPTSAMPLE.C
D:\12_RMV\03_RADIO_SONDE\SAMPLE\X64\DEBUG\VC143.PDB
^D:\12_RMV\03_RADIO_SONDE\SAMPLE\SRC\RXMONITORSAMPLE.C
D:\12_RMV\03_RADIO_SONDE\SAMPLE\X64\DEBUG\VC143.PDB
^D:\12_RMV\03_RADIO_SONDE\SAMPLE\SRC\RXSAMPLE.C
D:\12_RMV\03_RADIO_SONDE\SAMPLE\X64\DEBUG\VC143.PDB
^D:\12_RMV\03_RADIO_SONDE\SAMPLE\SRC\RXTXLOOPSAMPLE.C
D:\12_RMV\03_RADIO_SONDE\SAMPLE\X64\DEBUG\VC143.PDB
^D:\12_RMV\03_RADIO_SONDE\SAMPLE\SRC\TEMPLATE_SAMPLE.C
D:\12_RMV\03_RADIO_SONDE\SAMPLE\X64\DEBUG\VC143.PDB
^D:\12_RMV\03_RADIO_SONDE\SAMPLE\SRC\TXACYCLICSAMPLE.C
D:\12_RMV\03_RADIO_SONDE\SAMPLE\X64\DEBUG\VC143.PDB
^D:\12_RMV\03_RADIO_SONDE\SAMPLE\SRC\TXDYNTAGSAMPLE.C
D:\12_RMV\03_RADIO_SONDE\SAMPLE\X64\DEBUG\VC143.PDB
^D:\12_RMV\03_RADIO_SONDE\SAMPLE\SRC\TXFIFOBASICSAMPLE.C
D:\12_RMV\03_RADIO_SONDE\SAMPLE\X64\DEBUG\VC143.PDB
^D:\12_RMV\03_RADIO_SONDE\SAMPLE\SRC\TXFIFOINTERRUPTSAMPLE.C
D:\12_RMV\03_RADIO_SONDE\SAMPLE\X64\DEBUG\VC143.PDB
^D:\12_RMV\03_RADIO_SONDE\SAMPLE\SRC\TXINTERRUPTSAMPLE.C
D:\12_RMV\03_RADIO_SONDE\SAMPLE\X64\DEBUG\VC143.PDB
^D:\12_RMV\03_RADIO_SONDE\SAMPLE\SRC\TXPHYSREPLAY.C
D:\12_RMV\03_RADIO_SONDE\SAMPLE\X64\DEBUG\VC143.PDB
^D:\12_RMV\03_RADIO_SONDE\SAMPLE\SRC\TXRATEORIENTEDSAMPLE.C
D:\12_RMV\03_RADIO_SONDE\SAMPLE\X64\DEBUG\VC143.PDB
^D:\12_RMV\03_RADIO_SONDE\SAMPLE\SRC\TXFRAMINGSAMPLE.C
D:\12_RMV\03_RADIO_SONDE\SAMPLE\X64\DEBUG\VC143.PDB
