^D:\12_RMV\03_RADIO_SONDE\SAMPLE\X64\DEBUG\A429_SAMPLE.OBJ|D:\12_RMV\03_RADIO_SONDE\SAMPLE\X64\DEBUG\PRINT_VERSIONS.OBJ|D:\12_RMV\03_RADIO_SONDE\SAMPLE\X64\DEBUG\RXINTERRUPTSAMPLE.OBJ|D:\12_RMV\03_RADIO_SONDE\SAMPLE\X64\DEBUG\RXMONITORSAMPLE.OBJ|D:\12_RMV\03_RADIO_SONDE\SAMPLE\X64\DEBUG\RXSAMPLE.OBJ|D:\12_RMV\03_RADIO_SONDE\SAMPLE\X64\DEBUG\RXTXLOOPSAMPLE.OBJ|D:\12_RMV\03_RADIO_SONDE\SAMPLE\X64\DEBUG\TEMPLATE_SAMPLE.OBJ|D:\12_RMV\03_RADIO_SONDE\SAMPLE\X64\DEBUG\TXACYCLICSAMPLE.OBJ|D:\12_RMV\03_RADIO_SONDE\SAMPLE\X64\DEBUG\TXDYNTAGSAMPLE.OBJ|D:\12_RMV\03_RADIO_SONDE\SAMPLE\X64\DEBUG\TXFIFOBASICSAMPLE.OBJ|D:\12_RMV\03_RADIO_SONDE\SAMPLE\X64\DEBUG\TXFIFOINTERRUPTSAMPLE.OBJ|D:\12_RMV\03_RADIO_SONDE\SAMPLE\X64\DEBUG\TXFRAMINGSAMPLE.OBJ|D:\12_RMV\03_RADIO_SONDE\SAMPLE\X64\DEBUG\TXINTERRUPTSAMPLE.OBJ|D:\12_RMV\03_RADIO_SONDE\SAMPLE\X64\DEBUG\TXPHYSREPLAY.OBJ|D:\12_RMV\03_RADIO_SONDE\SAMPLE\X64\DEBUG\TXRATEORIENTEDSAMPLE.OBJ
/OUT:"DEBUG\BIN64\SAMPLE.EXE" /INCREMENTAL /ILK:"X64\DEBUG\SAMPLE.ILK" /NOLOGO /LIBPATH:..\LIB64 /LIBPATH:\LIB64 API_CIV.9.LIB KERNEL32.LIB USER32.LIB GDI32.LIB WINSPOOL.LIB COMDLG32.LIB ADVAPI32.LIB SHELL32.LIB OLE32.LIB OLEAUT32.LIB UUID.LIB ODBC32.LIB ODBCCP32.LIB KERNEL32.LIB USER32.LIB GDI32.LIB WINSPOOL.LIB COMDLG32.LIB ADVAPI32.LIB SHELL32.LIB OLE32.LIB OLEAUT32.LIB UUID.LIB ODBC32.LIB ODBCCP32.LIB /MANIFEST /MANIFESTUAC:"level='asInvoker' uiAccess='false'" /manifest:embed /DEBUG /PDB:"DEBUG\BIN64\SAMPLE.PDB" /SUBSYSTEM:CONSOLE /TLBID:1 /DYNAMICBASE /NXCOMPAT /IMPLIB:"DEBUG\BIN64\SAMPLE.LIB" /MACHINE:X64 X64\DEBUG\A429_SAMPLE.OBJ
X64\DEBUG\PRINT_VERSIONS.OBJ
X64\DEBUG\RXINTERRUPTSAMPLE.OBJ
X64\DEBUG\RXMONITORSAMPLE.OBJ
X64\DEBUG\RXSAMPLE.OBJ
X64\DEBUG\RXTXLOOPSAMPLE.OBJ
X64\DEBUG\TEMPLATE_SAMPLE.OBJ
X64\DEBUG\TXACYCLICSAMPLE.OBJ
X64\DEBUG\TXDYNTAGSAMPLE.OBJ
X64\DEBUG\TXFIFOBASICSAMPLE.OBJ
X64\DEBUG\TXFIFOINTERRUPTSAMPLE.OBJ
X64\DEBUG\TXINTERRUPTSAMPLE.OBJ
X64\DEBUG\TXPHYSREPLAY.OBJ
X64\DEBUG\TXRATEORIENTEDSAMPLE.OBJ
X64\DEBUG\TXFRAMINGSAMPLE.OBJ
